{
  "Version": "2012-10-17",
  "Statement": [
    {
      "Effect": "Allow",
      "Resource": [
        "*"
      ],
      "Action": [
        "ec2:CreateNetworkInterface",
        "ec2:DescribeDhcpOptions",
        "ec2:DescribeNetworkInterfaces",
        "ec2:DeleteNetworkInterface",
        "ec2:DescribeSubnets",
        "ec2:DescribeSecurityGroups",
        "ec2:DescribeVpcs",
        "logs:CreateLogGroup",
        "logs:CreateLogStream",
        "logs:PutLogEvents",
        "ecr:InitiateLayerUpload",
        "ecr:UploadLayerPart",
        "ecr:CompleteLayerUpload",
        "ecr:PutImage",
        "ecr:GetAuthorizationToken",
        "ecr:BatchCheckLayerAvailability",
        "ecr:GetDownloadUrlForLayer",
        "ecr:GetRepositoryPolicy",
        "ecr:DescribeRepositories",
        "ecr:ListImages",
        "ecr:DescribeImages",
        "ecr:BatchGetImage",
        "ecr:GetLifecyclePolicy",
        "ecr:GetLifecyclePolicyPreview",
        "ecr:ListTagsForResource",
        "ecr:DescribeImageScanFindings",
        "ecs:RunTask",
        "iam:PassRole"
      ]
    },
    {
      "Effect":"Allow",
      "Action": [
        "s3:PutAnalyticsConfiguration",
        "s3:GetObjectVersionTagging",
        "s3:CreateBucket",
        "s3:ReplicateObject",
        "s3:GetObjectAcl",
        "s3:GetBucketObjectLockConfiguration",
        "s3:DeleteBucketWebsite",
        "s3:GetIntelligentTieringConfiguration",
        "s3:PutLifecycleConfiguration",
        "s3:GetObjectVersionAcl",
        "s3:PutBucketAcl",
        "s3:PutObjectTagging",
        "s3:DeleteObject",
        "s3:DeleteObjectTagging",
        "s3:GetBucketPolicyStatus",
        "s3:GetObjectRetention",
        "s3:GetBucketWebsite",
        "s3:PutReplicationConfiguration",
        "s3:DeleteObjectVersionTagging",
        "s3:PutObjectLegalHold",
        "s3:GetObjectLegalHold",
        "s3:GetBucketNotification",
        "s3:PutBucketCORS",
        "s3:DeleteBucketPolicy",
        "s3:GetReplicationConfiguration",
        "s3:ListMultipartUploadParts",
        "s3:PutObject",
        "s3:GetObject",
        "s3:PutBucketNotification",
        "s3:PutBucketLogging",
        "s3:PutObjectVersionAcl",
        "s3:GetAnalyticsConfiguration",
        "s3:PutBucketObjectLockConfiguration",
        "s3:GetObjectVersionForReplication",
        "s3:GetLifecycleConfiguration",
        "s3:GetInventoryConfiguration",
        "s3:GetBucketTagging",
        "s3:PutAccelerateConfiguration",
        "s3:DeleteObjectVersion",
        "s3:GetBucketLogging",
        "s3:ListBucketVersions",
        "s3:ReplicateTags",
        "s3:RestoreObject",
        "s3:ListBucket",
        "s3:GetAccelerateConfiguration",
        "s3:GetBucketPolicy",
        "s3:PutEncryptionConfiguration",
        "s3:GetEncryptionConfiguration",
        "s3:GetObjectVersionTorrent",
        "s3:AbortMultipartUpload",
        "s3:PutBucketTagging",
        "s3:GetBucketRequestPayment",
        "s3:DeleteBucketOwnershipControls",
        "s3:GetObjectTagging",
        "s3:GetMetricsConfiguration",
        "s3:GetBucketOwnershipControls",
        "s3:DeleteBucket",
        "s3:PutBucketVersioning",
        "s3:PutObjectAcl",
        "s3:ListBucketMultipartUploads",
        "s3:PutIntelligentTieringConfiguration",
        "s3:PutMetricsConfiguration",
        "s3:PutBucketOwnershipControls",
        "s3:PutObjectVersionTagging",
        "s3:GetBucketVersioning",
        "s3:GetBucketAcl",
        "s3:BypassGovernanceRetention",
        "s3:PutInventoryConfiguration",
        "s3:GetObjectTorrent",
        "s3:ObjectOwnerOverrideToBucketOwner",
        "s3:PutBucketWebsite",
        "s3:PutBucketRequestPayment",
        "s3:PutObjectRetention",
        "s3:GetBucketCORS",
        "s3:PutBucketPolicy",
        "s3:GetBucketLocation",
        "s3:ReplicateDelete",
        "s3:GetObjectVersion"
      ],
      "Resource": [
        "*"
      ]
    },
    {
      "Effect": "Allow",
      "Action": [
        "ec2:CreateNetworkInterfacePermission"
      ],
      "Resource": "arn:aws:ec2:*:*:network-interface/*",
      "Condition": {
        "StringLike": {
          "ec2:Subnet": [
            "arn:aws:ec2:*:*:subnet/*"
          ],
          "ec2:AuthorizedService": "codebuild.amazonaws.com"
        }
      }
    },
    {
      "Effect": "Allow",
      "Action": [
        "cloudfront:ListCloudFrontOriginAccessIdentities",
        "cloudfront:ListDistributionsByCachePolicyId",
        "cloudfront:GetCachePolicyConfig",
        "cloudfront:ListFieldLevelEncryptionConfigs",
        "cloudfront:GetPublicKeyConfig",
        "cloudfront:GetPublicKey",
        "cloudfront:ListCachePolicies",
        "cloudfront:ListOriginRequestPolicies",
        "cloudfront:GetOriginRequestPolicyConfig",
        "cloudfront:ListPublicKeys",
        "cloudfront:GetFieldLevelEncryption",
        "cloudfront:GetOriginRequestPolicy",
        "cloudfront:ListDistributions",
        "cloudfront:ListFieldLevelEncryptionProfiles",
        "cloudfront:ListStreamingDistributions",
        "cloudfront:GetCachePolicy",
        "cloudfront:ListDistributionsByWebACLId",
        "cloudfront:GetFieldLevelEncryptionProfileConfig",
        "cloudfront:GetFieldLevelEncryptionConfig",
        "cloudfront:GetFieldLevelEncryptionProfile",
        "cloudfront:ListDistributionsByOriginRequestPolicyId"
      ],
      "Resource": "*"
    }
  ]
}
